module gitlab.com/manh737/gin-example

go 1.15

require (
	github.com/gin-gonic/gin v1.6.3
	gitlab.com/pragmaticreviews/golang-gin-poc v0.0.0-20200217232121-d0a67e33c0bd
	gopkg.in/go-playground/validator.v9 v9.29.1
)
